%YAML 1.1
%TAG !u! tag:unity3d.com,2011:
--- !u!1045 &1
EditorBuildSettings:
  m_ObjectHideFlags: 0
  serializedVersion: 2
  m_Scenes:
  - enabled: 1
    path: Assets/Firebase/Sample/Messaging/RealTimeDB.unity
    guid: ffec5b43f17431f4a99970fee12d79df
