{
  "project_info": {
    "project_number": "855648901259",
    "firebase_url": "https://hpushnotification-287db.firebaseio.com",
    "project_id": "hpushnotification-287db",
    "storage_bucket": "hpushnotification-287db.appspot.com"
  },
  "client": [
    {
      "client_info": {
        "mobilesdk_app_id": "1:855648901259:android:59471be74e4e98219e9c8e",
        "android_client_info": {
          "package_name": "com.hollowcubes.hpushnotify"
        }
      },
      "oauth_client": [
        {
          "client_id": "855648901259-cf8kvo742nhbess59cd5ipnr9vvh9udq.apps.googleusercontent.com",
          "client_type": 3
        }
      ],
      "api_key": [
        {
          "current_key": "AIzaSyCVCcebL6hGxWcTYit5_3kpi7nJrGC1YkA"
        }
      ],
      "services": {
        "appinvite_service": {
          "other_platform_oauth_client": [
            {
              "client_id": "855648901259-cf8kvo742nhbess59cd5ipnr9vvh9udq.apps.googleusercontent.com",
              "client_type": 3
            }
          ]
        }
      }
    }
  ],
  "configuration_version": "1"
}